module gitlab.com/rackn/go-drpmachines

go 1.21.5

require (
	github.com/stretchr/testify v1.8.4
	gopkg.in/dnaeon/go-vcr.v3 v3.1.2
)

require (
	github.com/davecgh/go-spew v1.1.1 // indirect
	github.com/pmezard/go-difflib v1.0.0 // indirect
	gopkg.in/yaml.v3 v3.0.1 // indirect
)
