{
  "$defs": {
    "Alert": {
      "additionalProperties": false,
      "description": "Alert represents a notification that needs to be acknowledged.",
      "properties": {
        "AcknowledgeTime": {
          "description": "AcknowledgeTime - time of acknowledgement",
          "format": "date-time",
          "type": "string"
        },
        "AcknowledgeUser": {
          "description": "AcknowledgeUser - user who acknowledged",
          "type": "string"
        },
        "Acknowledged": {
          "description": "Acknowledged - has the alert been acknowledged",
          "type": "boolean"
        },
        "Available": {
          "description": "Available tracks whether or not the model passed validation.\nread only: true",
          "type": "boolean"
        },
        "Contents": {
          "description": "Contents is the full information about the alert",
          "type": "string"
        },
        "Count": {
          "description": "Count is the number of times this Name has been called uniquely\nbeyond the initial create.",
          "type": "integer"
        },
        "Endpoint": {
          "description": "Endpoint tracks the owner of the object among DRP endpoints\nread only: true",
          "type": "string"
        },
        "Errors": {
          "description": "If there are any errors in the validation process, they will be\navailable here.\nread only: true",
          "items": {
            "type": "string"
          },
          "type": "array"
        },
        "Level": {
          "description": "Level of the alert\nRange of values: Error, Warn, Info, Debug",
          "type": "string"
        },
        "Name": {
          "description": "Name is a short name for this alert.  This can contain any reference\ninformation for humans you want associated with the alert.",
          "type": "string"
        },
        "Note": {
          "description": "Notes - field for additional information about the Alert\nUse this field for notes about what is done with the alert.",
          "type": "string"
        },
        "Params": {
          "additionalProperties": true,
          "description": "Params - structure of data elements - filterable",
          "type": "object"
        },
        "Principal": {
          "description": "Principal is the creator of the alert.",
          "type": "string"
        },
        "ReadOnly": {
          "description": "ReadOnly tracks if the store for this object is read-only.\nThis flag is informational, and cannot be changed via the API.\n\nread only: true",
          "type": "boolean"
        },
        "Time": {
          "description": "Time of the alert.\nswagger:strfmt date-time",
          "format": "date-time",
          "type": "string"
        },
        "Uuid": {
          "$ref": "#/$defs/UUID",
          "description": "The UUID of the alert.\nThis is auto-created at Create time, and cannot change afterwards.\n\nrequired: true\nswagger:strfmt uuid"
        },
        "Validated": {
          "description": "Validated tracks whether or not the model has been validated.\nread only: true",
          "type": "boolean"
        }
      },
      "required": "Uuid",
      "type": "object"
    },
    "UUID": {
      "contentEncoding": "base64",
      "type": "string"
    }
  },
  "$id": "https://gitlab.com/rackn/provision/v4/models/alert",
  "$ref": "#/$defs/Alert",
  "$schema": "https://json-schema.org/draft/2020-12/schema"
}