{
  "$defs": {
    "Meta": {
      "description": "Meta holds information about arbitrary things.",
      "patternProperties": {
        ".*": {
          "type": "string"
        }
      },
      "type": "object"
    },
    "Param": {
      "additionalProperties": false,
      "description": "Param represents metadata about a Parameter or a Preference.",
      "properties": {
        "Available": {
          "description": "Available tracks whether or not the model passed validation.\nread only: true",
          "type": "boolean"
        },
        "Bundle": {
          "description": "Bundle tracks the name of the store containing this object.\nThis field is read-only, and cannot be changed via the API.\n\nread only: true",
          "type": "string"
        },
        "Description": {
          "description": "Description is a one-line description of the parameter.",
          "type": "string"
        },
        "Documentation": {
          "description": "Documentation details what the parameter does, what values it can\ntake, what it is used for, etc.",
          "type": "string"
        },
        "Endpoint": {
          "description": "Endpoint tracks the owner of the object among DRP endpoints\nread only: true",
          "type": "string"
        },
        "Errors": {
          "description": "If there are any errors in the validation process, they will be\navailable here.\nread only: true",
          "items": {
            "type": "string"
          },
          "type": "array"
        },
        "Meta": {
          "$ref": "#/$defs/Meta"
        },
        "Name": {
          "description": "Name is the name of the param.  Params must be uniquely named.\n\nrequired: true",
          "type": "string"
        },
        "ReadOnly": {
          "description": "ReadOnly tracks if the store for this object is read-only.\nThis flag is informational, and cannot be changed via the API.\n\nread only: true",
          "type": "boolean"
        },
        "Schema": {
          "description": "Schema must be a valid JSONSchema as of draft v4.\n\nrequired: true"
        },
        "Secure": {
          "description": "Secure implies that any API interactions with this Param\nwill deal with SecureData values.\n\nrequired: true",
          "type": "boolean"
        },
        "Validated": {
          "description": "Validated tracks whether or not the model has been validated.\nread only: true",
          "type": "boolean"
        }
      },
      "type": "object"
    }
  },
  "$id": "https://gitlab.com/rackn/provision/v4/models/param",
  "$ref": "#/$defs/Param",
  "$schema": "https://json-schema.org/draft/2020-12/schema"
}
